<?xml version="1.0" encoding="utf-8"?>
<!-- Generator: Adobe Illustrator 23.0.6, SVG Export Plug-In . SVG Version: 6.00 Build 0)  -->
<svg version="1.1" id="flag-icon-css-es" xmlns="http://www.w3.org/2000/svg" xmlns:xlink="http://www.w3.org/1999/xlink" x="0px"
	 y="0px" viewBox="0 0 425.2 425.2" style="enable-background:new 0 0 425.2 425.2;" xml:space="preserve">
<style type="text/css">
	.st0{fill:#BD3D44;}
	.st1{fill:#FFFFFF;}
	.st2{fill:#192F5D;}
</style>
<path class="st0" d="M214.4,98.2h177.4c-7.5-11.7-16.2-22.7-25.8-32.7H214.4V98.2z"/>
<path class="st0" d="M214.4,163.5h205.1c-2.7-11.3-6.2-22.2-10.6-32.7H214.4V163.5z"/>
<path class="st0" d="M391.7,327.1H33.5c7.5,11.7,16.1,22.6,25.7,32.6H366C375.6,349.8,384.2,338.8,391.7,327.1z"/>
<path class="st0" d="M214.4,229h210.2c0.4-5.4,0.6-10.9,0.6-16.4s-0.2-11-0.6-16.4H214.4V229z"/>
<path class="st0" d="M325.9,32.7C293.6,12.3,255.4,0.4,214.4,0v32.7H325.9z"/>
<path class="st0" d="M99.2,392.5c32.8,20.7,71.7,32.7,113.4,32.7c41.7,0,80.5-12,113.4-32.7H99.2z"/>
<path class="st0" d="M419.5,261.7H5.7c2.7,11.3,6.2,22.2,10.6,32.7h392.6C413.3,283.9,416.8,273,419.5,261.7z"/>
<path class="st1" d="M214.4,65.4H366c-12-12.5-25.4-23.5-40.1-32.7H214.4V65.4z"/>
<path class="st1" d="M366,359.8H59.2c12,12.5,25.4,23.5,40.1,32.7h226.7C340.6,383.2,354.1,372.2,366,359.8z"/>
<path class="st1" d="M424.6,229H214.4H0.6c0.9,11.2,2.6,22.1,5.1,32.7h413.8C422,251.1,423.7,240.1,424.6,229z"/>
<path class="st1" d="M214.4,130.8h194.5c-4.8-11.4-10.5-22.3-17.1-32.6H214.4V130.8z"/>
<path class="st1" d="M214.4,196.2h210.2c-0.9-11.2-2.6-22.1-5.1-32.7H214.4V196.2z"/>
<path class="st1" d="M408.9,294.4H16.3c4.8,11.4,10.5,22.4,17.1,32.7h358.3C398.4,316.8,404.1,305.8,408.9,294.4z"/>
<path class="st2" d="M214.4,196.2v-32.7v-32.7V98.2V65.4V32.7V0c-0.6,0-1.2,0-1.8,0c-27.3,0-53.5,5.2-77.5,14.6l1.4,4.3h9.5
	l-7.6,5.6l2.9,9.1l-7.7-5.6l-7.6,5.6l2.9-9.1l-6.2-4.5c-32.7,15.3-60.9,38.7-82,67.6h9.2l3-9.1l2.9,9.1h9.6l-7.7,5.6l2.9,9.1
	l-7.6-5.6l-7.7,5.6l2.9-9.1l-7.4-5.4c-4.6,6.3-8.9,12.9-12.7,19.7l1,3.1h9.4l-7.6,5.6l2.9,9.1l-7.7-5.6l-6.6,4.8
	c-7.8,17.2-13.5,35.6-16.5,54.8h8.8l-7.7,5.6l3,9.1l-5.5-4C0.4,197.3,0,204.9,0,212.6c0,5.5,0.2,11,0.6,16.4h213.7V196.2z
	 M195.2,170.8l-7.7-5.6l-7.7,5.6l3-9.1l-7.7-5.6h9.6l2.9-9.1l2.9,9.1h9.6l-7.7,5.6L195.2,170.8z M49.9,179.1l3-9.1l2.9,9.1h9.6
	l-7.7,5.6l2.9,9.1l-7.6-5.6l-7.7,5.6l2.9-9.1l-7.6-5.6H49.9z M75,161.8l-7.7-5.6h9.5l3-9.1l2.9,9.1h9.6l-7.7,5.6l3,9l-7.7-5.6
	l-7.7,5.6L75,161.8z M87.5,125.2l-7.7-5.6l-7.7,5.6l3-9.1l-7.7-5.6h9.5l3-9.1l2.9,9.1h9.6l-7.7,5.6L87.5,125.2z M130.7,110.5
	l2.9-9.1l3,9.1h9.5l-7.6,5.6l2.9,9.1l-7.7-5.6l-7.6,5.6l2.9-9.1l-7.6-5.6H130.7z M109.6,133.4h9.5l-7.6,5.6l2.9,9.1l-7.7-5.6L99,148
	l2.9-9.1l-7.7-5.6h9.6l2.8-9L109.6,133.4z M114.4,193.8l-7.7-5.6l-7.6,5.6l2.9-9.1l-7.7-5.6h9.6l2.8-9.1l3,9.1h9.5l-7.6,5.6
	L114.4,193.8z M128.8,161.8l-7.6-5.6h9.5l2.9-9.1l3,9.1h9.5l-7.6,5.6l2.9,9l-7.7-5.6l-7.6,5.6L128.8,161.8z M168.2,193.8l-7.6-5.6
	l-7.7,5.6l2.9-9.1l-7.6-5.6h9.5l3-9.1l2.9,9.1h9.6l-7.7,5.6L168.2,193.8z M163.5,133.4h9.6l-7.7,5.6l2.9,9.1l-7.6-5.6l-7.7,5.6
	l2.9-9.1l-7.6-5.6h9.5l3-9L163.5,133.4z M195.2,125.2l-7.7-5.6l-7.7,5.6l3-9.1l-7.7-5.6h9.6l2.9-9.1l2.9,9.1h9.6l-7.7,5.6
	L195.2,125.2z M168.2,102.2l-7.6-5.6l-7.7,5.6l2.9-9.1l-7.6-5.6h9.5l3-9.1l2.9,9.1h9.6l-7.7,5.6L168.2,102.2z M195.2,79.3l-7.7-5.6
	l-7.7,5.6l3-9.1l-7.7-5.6h9.6l2.9-9.1l2.9,9.1h9.6l-7.7,5.6L195.2,79.3z M184.6,18.9l2.9-9.1l2.9,9.1h9.6l-7.7,5.6l3,9.1l-7.7-5.6
	l-7.7,5.6l3-9.1l-7.7-5.6H184.6z M163.5,41.8h9.6l-7.7,5.6l2.9,9.1l-7.6-5.6l-7.7,5.6l2.9-9.1l-7.6-5.6h9.5l3-9.1L163.5,41.8z
	 M130.7,64.6l2.9-9.1l3,9.1h9.5l-7.6,5.6l2.9,9.1l-7.7-5.6l-7.6,5.6l2.9-9.1l-7.6-5.6H130.7z M103.8,41.8l2.8-9.1l3,9.1h9.5
	l-7.7,5.6l3,9.1l-7.7-5.6L99,56.4l2.9-9.1l-7.7-5.6H103.8z M67.3,64.6h9.5l3-9.1l2.9,9.1h9.6l-7.7,5.6l3,9.1l-7.7-5.6L72,79.3l3-9.1
	L67.3,64.6z M94.2,87.5h9.6l2.8-9.1l3,9.1h9.5l-7.6,5.6l2.9,9.1l-7.7-5.6l-7.6,5.6l2.9-9.1L94.2,87.5z M52.8,124.3l2.9,9.1h9.6
	l-7.7,5.6l2.9,9.1l-7.6-5.6l-7.7,5.6l2.9-9.1l-7.6-5.6h9.5L52.8,124.3z M21,161.8l-7.7-5.6h9.6l3-9.1l3,9.1h9.4l-7.6,5.6l2.9,9
	l-7.7-5.6l-7.6,5.6L21,161.8z M33.7,216.7l-7.7-5.6l-7.6,5.6l2.9-9.1l-7.7-5.6H23l2.8-9l3,9.1h9.4l-7.5,5.6L33.7,216.7z M87.5,216.7
	l-7.7-5.6l-7.7,5.6l3-9.1l-7.7-5.6h9.5l3-9l2.9,9.1h9.6l-7.7,5.6L87.5,216.7z M141.3,216.7l-7.7-5.6l-7.6,5.6l2.9-9.1l-7.6-5.6h9.5
	l2.9-9l3,9.1h9.5l-7.6,5.6L141.3,216.7z M195.2,216.7l-7.7-5.6l-7.7,5.6l3-9.1L175,202h9.6l2.9-9l2.9,9.1h9.6l-7.7,5.6L195.2,216.7z
	"/>
<path class="st2" d="M131.6,16c-2.2,0.9-4.4,1.9-6.6,2.9h5.7L131.6,16z"/>
<polygon class="st1" points="72,79.3 79.7,73.7 87.5,79.3 84.5,70.3 92.2,64.7 82.7,64.7 79.7,55.6 76.8,64.6 67.3,64.6 75,70.2 "/>
<polygon class="st1" points="40.4,133.3 48,138.9 45.1,148 52.8,142.3 60.5,148 57.6,138.9 65.3,133.4 55.7,133.4 52.8,124.3 
	49.9,133.3 "/>
<polygon class="st1" points="28.8,202.1 25.9,193 23,202 13.5,202 21.2,207.5 18.3,216.7 25.9,211.1 33.7,216.7 30.8,207.6 
	38.2,202.1 "/>
<polygon class="st1" points="179.7,33.5 187.5,27.9 195.2,33.6 192.2,24.4 199.9,18.9 190.4,18.9 187.5,9.8 184.6,18.9 175,18.9 
	182.7,24.4 "/>
<polygon class="st1" points="82.7,202.1 79.7,193 76.8,202 67.3,202 75,207.5 72,216.7 79.7,211.1 87.5,216.7 84.5,207.6 
	92.2,202.1 "/>
<polygon class="st1" points="190.4,202.1 187.5,193 184.6,202 175,202 182.7,207.5 179.7,216.7 187.5,211.1 195.2,216.7 
	192.2,207.6 199.9,202.1 "/>
<polygon class="st1" points="136.6,202.1 133.6,193 130.7,202 121.2,202 128.8,207.5 125.9,216.7 133.6,211.1 141.3,216.7 
	138.4,207.6 146,202.1 "/>
<polygon class="st1" points="173,87.5 163.5,87.5 160.6,78.5 157.6,87.5 148.1,87.5 155.7,93.1 152.8,102.1 160.6,96.6 168.2,102.2 
	165.3,93.1 "/>
<polygon class="st1" points="199.9,156.3 190.4,156.3 187.5,147.2 184.6,156.2 175,156.2 182.7,161.8 179.7,170.8 187.5,165.3 
	195.2,170.8 192.2,161.9 "/>
<path class="st1" d="M45.1,102.1l7.7-5.6l7.6,5.6l-2.9-9.1l7.7-5.6h-9.6l-2.9-9.1l-3,9.1h-9.2c0,0-0.1,0.1-0.1,0.1l7.4,5.4
	L45.1,102.1z"/>
<path class="st1" d="M125.9,33.5l7.6-5.6l7.7,5.6l-2.9-9.1l7.6-5.6h-9.5l-1.4-4.3c-1.2,0.5-2.4,1-3.6,1.4l-0.9,2.9H125
	c-0.8,0.3-1.5,0.7-2.3,1.1l6.2,4.5L125.9,33.5z"/>
<polygon class="st1" points="45.1,193.7 52.8,188.2 60.5,193.8 57.6,184.7 65.3,179.1 55.7,179.1 52.8,170.1 49.9,179.1 40.4,179.1 
	48,184.7 "/>
<polygon class="st1" points="99,102.1 106.7,96.6 114.4,102.2 111.5,93.1 119.1,87.5 109.6,87.5 106.7,78.5 103.8,87.5 94.2,87.5 
	101.9,93.1 "/>
<polygon class="st1" points="99,56.4 106.7,50.8 114.4,56.4 111.4,47.3 119.1,41.8 109.6,41.8 106.7,32.7 103.8,41.8 94.2,41.8 
	101.9,47.3 "/>
<polygon class="st1" points="125.9,125.1 133.6,119.5 141.3,125.2 138.4,116 146,110.5 136.6,110.5 133.6,101.4 130.7,110.5 
	121.2,110.5 128.8,116 "/>
<polygon class="st1" points="25.8,165.3 33.5,170.8 30.6,161.9 38.2,156.3 28.8,156.3 25.9,147.2 22.9,156.2 13.3,156.2 21,161.8 
	18.1,170.8 "/>
<polygon class="st1" points="128.8,70.2 125.9,79.3 133.6,73.7 141.3,79.3 138.4,70.3 146,64.7 136.6,64.7 133.6,55.6 130.7,64.6 
	121.2,64.6 "/>
<path class="st1" d="M3.7,184.7l7.7-5.6H2.6c-0.6,3.5-1,7.1-1.4,10.7l5.5,4L3.7,184.7z"/>
<path class="st1" d="M33.5,125.2l-2.9-9.1l7.6-5.6h-9.4l-1-3.1c-3.1,5.5-6,11.2-8.7,16.9l6.6-4.8L33.5,125.2z"/>
<polygon class="st1" points="163.5,179.1 160.6,170.1 157.6,179.1 148.1,179.1 155.7,184.7 152.8,193.7 160.6,188.2 168.2,193.8 
	165.3,184.7 173,179.1 "/>
<polygon class="st1" points="141.3,170.8 138.4,161.9 146,156.3 136.6,156.3 133.6,147.2 130.7,156.2 121.2,156.2 128.8,161.8 
	125.9,170.8 133.6,165.3 "/>
<polygon class="st1" points="109.6,179.1 106.7,170.1 103.8,179.1 94.2,179.1 101.9,184.7 99,193.7 106.7,188.2 114.4,193.8 
	111.5,184.7 119.1,179.1 "/>
<polygon class="st1" points="157.6,133.3 148.1,133.3 155.7,138.9 152.8,148 160.6,142.3 168.2,148 165.3,138.9 173,133.4 
	163.5,133.4 160.6,124.3 "/>
<polygon class="st1" points="103.8,133.3 94.2,133.3 101.9,138.9 99,148 106.7,142.3 114.4,148 111.5,138.9 119.1,133.4 
	109.6,133.4 106.7,124.3 "/>
<polygon class="st1" points="199.9,64.7 190.4,64.7 187.5,55.6 184.6,64.6 175,64.6 182.7,70.2 179.7,79.3 187.5,73.7 195.2,79.3 
	192.2,70.3 "/>
<polygon class="st1" points="190.4,110.5 187.5,101.4 184.6,110.5 175,110.5 182.7,116 179.7,125.1 187.5,119.5 195.2,125.2 
	192.2,116 199.9,110.5 "/>
<polygon class="st1" points="148.1,41.8 155.7,47.3 152.8,56.4 160.6,50.8 168.2,56.4 165.3,47.3 173,41.8 163.5,41.8 160.6,32.7 
	157.6,41.8 "/>
<polygon class="st1" points="87.5,170.8 84.5,161.9 92.2,156.3 82.7,156.3 79.7,147.2 76.8,156.2 67.3,156.2 75,161.8 72,170.8 
	79.7,165.3 "/>
<polygon class="st1" points="82.7,110.5 79.7,101.4 76.8,110.5 67.3,110.5 75,116 72,125.1 79.7,119.5 87.5,125.2 84.5,116 
	92.2,110.5 "/>
</svg>
